module gitlab.com/gitlab-org/gitaly/tools/dlv

go 1.19

require github.com/go-delve/delve v1.21.0

require (
	github.com/cilium/ebpf v0.7.0 // indirect
	github.com/cosiner/argv v0.1.0 // indirect
	github.com/cpuguy83/go-md2man/v2 v2.0.0 // indirect
	github.com/derekparker/trie v0.0.0-20221213183930-4c74548207f4 // indirect
	github.com/frankban/quicktest v1.14.2 // indirect
	github.com/go-delve/liner v1.2.3-0.20220127212407-d32d89dd2a5d // indirect
	github.com/google/go-cmp v0.5.8 // indirect
	github.com/google/go-dap v0.9.1 // indirect
	github.com/hashicorp/golang-lru v0.5.4 // indirect
	github.com/inconshreveable/mousetrap v1.0.0 // indirect
	github.com/konsorten/go-windows-terminal-sequences v1.0.3 // indirect
	github.com/mattn/go-colorable v0.0.9 // indirect
	github.com/mattn/go-isatty v0.0.3 // indirect
	github.com/mattn/go-runewidth v0.0.13 // indirect
	github.com/rivo/uniseg v0.2.0 // indirect
	github.com/rogpeppe/go-internal v1.8.1 // indirect
	github.com/russross/blackfriday/v2 v2.0.1 // indirect
	github.com/shurcooL/sanitized_anchor_name v1.0.0 // indirect
	github.com/sirupsen/logrus v1.6.0 // indirect
	github.com/spf13/cobra v1.1.3 // indirect
	github.com/spf13/pflag v1.0.5 // indirect
	go.starlark.net v0.0.0-20220816155156-cfacd8902214 // indirect
	golang.org/x/arch v0.0.0-20190927153633-4e8777c89be4 // indirect
	golang.org/x/sys v0.0.0-20220908164124-27713097b956 // indirect
	gopkg.in/yaml.v2 v2.4.0 // indirect
)
